{
  "id": 1,
  "name": "John Doe",
  "address": "9 The Drive EDINBURGH EH37 3OD",
  "gender": "Male",
  "exemption": "Phasellus tristique consequat lacinia. Mauris at erat eu purus pulvinar elementum.",
  "birthday": "1990-09-09"
}
